<svg width="68" height="68" viewBox="0 0 68 68" fill="none" xmlns="http://www.w3.org/2000/svg">
<rect x="33.6416" y="2.12132" width="44.5763" height="44.5763" rx="13.5" transform="rotate(45 33.6416 2.12132)" stroke="white" stroke-width="3"/>
<path d="M21.0016 33.5029C20.9136 37.6609 24.4996 41.0709 28.6356 41.0049C31.3416 41.0049 33.6296 39.7069 34.8616 37.6609L33.1016 36.3629C32.0676 37.9689 30.5716 38.8709 28.6576 38.8709C25.6876 38.8709 23.4216 36.5829 23.4216 33.5029C23.4216 30.4229 25.6876 28.1349 28.6576 28.1349C30.2278 28.1349 31.5167 28.742 32.5 29.8469L33.9138 28.1349C32.5985 26.801 30.7255 26.0009 28.6356 26.0009C24.4996 25.9349 20.9136 29.3449 21.0016 33.5029Z" fill="white"/>
<path d="M32.2637 33.5029C32.1757 37.6609 35.7617 41.0709 39.8977 41.0049C42.6037 41.0049 44.8917 39.7069 46.1237 37.6609L44.3637 36.3629C43.3297 37.9689 41.8337 38.8709 39.9197 38.8709C36.9497 38.8709 34.6837 36.5829 34.6837 33.5029C34.6837 30.4229 36.9497 28.1349 39.9197 28.1349C41.8337 28.1349 43.3297 29.0369 44.3637 30.6429L46.1237 29.3449C44.8697 27.2989 42.5597 26.0009 39.8977 26.0009C35.7617 25.9349 32.1757 29.3449 32.2637 33.5029Z" fill="white"/>
</svg>
